E:\Automation\com.ElektriVoDev_Automation_Test\src\main\java\com\pages\MasterConfigs\ChargerConfigs.java
E:\Automation\com.ElektriVoDev_Automation_Test\src\main\java\com\pages\MasterConfigs\ConnectorConfigs.java
E:\Automation\com.ElektriVoDev_Automation_Test\src\main\java\com\repo\pages\Global\Misc.java
E:\Automation\com.ElektriVoDev_Automation_Test\src\main\java\com\pages\SuperAdmin\LeftSideMenus.java
E:\Automation\com.ElektriVoDev_Automation_Test\src\main\java\com\config\ExcelReader.java
E:\Automation\com.ElektriVoDev_Automation_Test\src\main\java\com\config\ReadExcel.java
E:\Automation\com.ElektriVoDev_Automation_Test\src\main\java\com\pages\SuperAdmin\SuperAdmin_Dashboard.java
E:\Automation\com.ElektriVoDev_Automation_Test\src\main\java\com\base\Base.java
E:\Automation\com.ElektriVoDev_Automation_Test\src\main\java\com\utils\TestClass.java
E:\Automation\com.ElektriVoDev_Automation_Test\src\main\java\com\utils\ReadData.java
E:\Automation\com.ElektriVoDev_Automation_Test\src\main\java\com\pages\SuperAdmin\SuperAdminLogin.java
E:\Automation\com.ElektriVoDev_Automation_Test\src\main\java\com\repo\pages\Global\LoginPage.java
E:\Automation\com.ElektriVoDev_Automation_Test\src\main\java\com\utils\ReadFile.java
E:\Automation\com.ElektriVoDev_Automation_Test\src\main\java\com\config\TestConfigs.java
E:\Automation\com.ElektriVoDev_Automation_Test\src\main\java\com\utils\TestUtils.java
E:\Automation\com.ElektriVoDev_Automation_Test\src\main\java\com\repo\pages\Global\ResetPassword.java
